…
Calculate and report the mean steps taken per day


``` r
library(dplyr)
activity %>% group_by(date) %>% summarise(mean_steps=mean(steps))
```

```
## # A tibble: 61 × 2
##    date       mean_steps
##    <date>          <dbl>
##  1 2012-10-01     NA    
##  2 2012-10-02      0.438
##  3 2012-10-03     39.4  
##  4 2012-10-04     42.1  
##  5 2012-10-05     46.2  
##  6 2012-10-06     53.5  
##  7 2012-10-07     38.2  
##  8 2012-10-08     NA    
##  9 2012-10-09     44.5  
## 10 2012-10-10     34.4  
## # ℹ 51 more rows
```

and median of the total number of steps taken per day


``` r
activity %>% group_by(date) %>% summarise(median_steps=median(steps))
```

```
## # A tibble: 61 × 2
##    date       median_steps
##    <date>            <dbl>
##  1 2012-10-01           NA
##  2 2012-10-02            0
##  3 2012-10-03            0
##  4 2012-10-04            0
##  5 2012-10-05            0
##  6 2012-10-06            0
##  7 2012-10-07            0
##  8 2012-10-08           NA
##  9 2012-10-09            0
## 10 2012-10-10            0
## # ℹ 51 more rows
```
…
